Intro to Mixed Models – Genetic Data Analysis (Spring 2026)
…
Why not!?

Below, I make some summaries. Look at the counts of number of observations per entry below.

adj_means %>% 
  # Count number obs per entry
  left_join(al_alt %>% count(entry,name = "Nobs")) %>% 
  # Count number of years per entry
  left_join(al_alt %>% distinct(entry,year) %>% count(entry, name = "Nyears"))

Joining with `by = join_by(entry)`
Joining with `by = join_by(entry)`

# A tibble: 35 × 5
   entry             mean emmean  Nobs Nyears
   <fct>            <dbl>  <dbl> <int>  <int>
 1 17MDCCH           49.1   49.1     4      2
 2 17MDCCS           56.3   56.3     4      2
 3 17RMCCL           34.0   NA       2      1
 4 18NCCCEGiant      50.2   NA       2      1
 5 19MDCC            53.0   53.0     4      2
 6 19NCCCLH          42.5   42.5     4      2
 7 19NCCCLS          44.2   44.2     4      2
 8 2020 Early Giant  45.6   NA       2      1
 9 20NCCCE           53.1   53.1     4      2
10 20NCCCLH          61.3   NA       2      1
# ℹ 25 more rows
…
